{"ATLAS-SUSY-2013-02:SR2jW": "atlas_susy_2013_02-4jt",
"ATLAS-SUSY-2013-02:SR2jl": "atlas_susy_2013_02-2jl",
"ATLAS-SUSY-2013-02:SR2jm": "atlas_susy_2013_02-2jm",
"ATLAS-SUSY-2013-02:SR2jt": "atlas_susy_2013_02-2jt",
"ATLAS-SUSY-2013-02:SR3j": "atlas_susy_2013_02-3j",
"ATLAS-SUSY-2013-02:SR4jl": "atlas_susy_2013_02-4jlm",
"ATLAS-SUSY-2013-02:SR4jlm": "atlas_susy_2013_02-4jlm",
"ATLAS-SUSY-2013-02:SR4jm": "atlas_susy_2013_02-4jm",
"ATLAS-SUSY-2013-02:SR4jt": "atlas_susy_2013_02-4jt",
"ATLAS-SUSY-2013-02:SR5j": "atlas_susy_2013_02-5j",
"ATLAS-SUSY-2013-02:SR6jl": "atlas_susy_2013_02-6jl",
"ATLAS-SUSY-2013-02:SR6jm": "atlas_susy_2013_02-6jm",
"ATLAS-SUSY-2013-02:SR6jt": "atlas_susy_2013_02-6jt",
"ATLAS-SUSY-2013-02:SR6jtp": "atlas_susy_2013_02-6jtp"}